(footprint "test"
	(version 20240108)
	(generator "kicad-footprint-generator")
	(layer "F.Cu")
	(property "Reference" "REF**"
		(at 0 -3 0)
		(layer "F.SilkS")
		(effects
			(font
				(size 1 1)
				(thickness 0.15)
			)
		)
	)
	(property "Value" "footprint name"
		(at 0 3 0)
		(layer "F.Fab")
		(effects
			(font
				(size 1 1)
				(thickness 0.15)
			)
		)
	)
	(attr smd)
	(fp_line
		(start 1 0)
		(end -1 0)
		(stroke
			(width 0.12)
			(type solid)
		)
		(layer "F.SilkS")
	)
	(fp_arc
		(start -1 0)
		(mid 0 -1)
		(end 1 0)
		(stroke
			(width 0.12)
			(type solid)
		)
		(layer "F.SilkS")
	)
	(fp_circle
		(center 0 0)
		(end 1.5 0)
		(stroke
			(width 0.12)
			(type solid)
		)
		(fill none)
		(layer "F.SilkS")
	)
	(pad "1" thru_hole rect
		(at 0 0)
		(size 2 2)
		(drill 1.2)
		(layers "*.Cu" "*.Mask")
		(remove_unused_layers no)
	)
	(model "example.3dshapes/example_footprint.wrl"
		(offset
			(xyz 0 0 0)
		)
		(scale
			(xyz 1 1 1)
		)
		(rotate
			(xyz 0 0 0)
		)
	)
)
